%YAML 1.1
%TAG !u! tag:unity3d.com,2011:
--- !u!1 &5927719358773641721
GameObject:
  m_ObjectHideFlags: 0
  m_CorrespondingSourceObject: {fileID: 0}
  m_PrefabInstance: {fileID: 0}
  m_PrefabAsset: {fileID: 0}
  serializedVersion: 6
  m_Component:
  - component: {fileID: 684159273871486437}
  - component: {fileID: 6734415016229462212}
  - component: {fileID: -7561543432485544687}
  m_Layer: 0
  m_Name: EndTile
  m_TagString: Untagged
  m_Icon: {fileID: 0}
  m_NavMeshLayer: 0
  m_StaticEditorFlags: 0
  m_IsActive: 1
--- !u!4 &684159273871486437
Transform:
  m_ObjectHideFlags: 0
  m_CorrespondingSourceObject: {fileID: 0}
  m_PrefabInstance: {fileID: 0}
  m_PrefabAsset: {fileID: 0}
  m_GameObject: {fileID: 5927719358773641721}
  m_LocalRotation: {x: 0, y: 0, z: 0, w: 1}
  m_LocalPosition: {x: 0, y: 0, z: 0}
  m_LocalScale: {x: 1, y: 1, z: 1}
  m_Children:
  - {fileID: 4865262870880233702}
  m_Father: {fileID: 0}
  m_RootOrder: 0
  m_LocalEulerAnglesHint: {x: 0, y: 0, z: 0}
--- !u!65 &6734415016229462212
BoxCollider:
  m_ObjectHideFlags: 0
  m_CorrespondingSourceObject: {fileID: 0}
  m_PrefabInstance: {fileID: 0}
  m_PrefabAsset: {fileID: 0}
  m_GameObject: {fileID: 5927719358773641721}
  m_Material: {fileID: 0}
  m_IsTrigger: 0
  m_Enabled: 1
  serializedVersion: 2
  m_Size: {x: 16, y: 1, z: 16}
  m_Center: {x: 0, y: -2.25, z: 0}
--- !u!114 &-7561543432485544687
MonoBehaviour:
  m_ObjectHideFlags: 0
  m_CorrespondingSourceObject: {fileID: 0}
  m_PrefabInstance: {fileID: 0}
  m_PrefabAsset: {fileID: 0}
  m_GameObject: {fileID: 5927719358773641721}
  m_Enabled: 1
  m_EditorHideFlags: 0
  m_Script: {fileID: 11500000, guid: 121c5079a21460448a16d8373ec756cd, type: 3}
  m_Name: 
  m_EditorClassIdentifier: 
--- !u!1001 &4903957858863533837
PrefabInstance:
  m_ObjectHideFlags: 0
  serializedVersion: 2
  m_Modification:
    m_TransformParent: {fileID: 684159273871486437}
    m_Modifications:
    - target: {fileID: -8679921383154817045, guid: 46ce6dadd6258b143a9714c2bab62af9,
        type: 3}
      propertyPath: m_LocalPosition.x
      value: 0
      objectReference: {fileID: 0}
    - target: {fileID: -8679921383154817045, guid: 46ce6dadd6258b143a9714c2bab62af9,
        type: 3}
      propertyPath: m_LocalPosition.y
      value: -2.5
      objectReference: {fileID: 0}
    - target: {fileID: -8679921383154817045, guid: 46ce6dadd6258b143a9714c2bab62af9,
        type: 3}
      propertyPath: m_LocalPosition.z
      value: 0
      objectReference: {fileID: 0}
    - target: {fileID: -8679921383154817045, guid: 46ce6dadd6258b143a9714c2bab62af9,
        type: 3}
      propertyPath: m_LocalRotation.x
      value: 0
      objectReference: {fileID: 0}
    - target: {fileID: -8679921383154817045, guid: 46ce6dadd6258b143a9714c2bab62af9,
        type: 3}
      propertyPath: m_LocalRotation.y
      value: 1
      objectReference: {fileID: 0}
    - target: {fileID: -8679921383154817045, guid: 46ce6dadd6258b143a9714c2bab62af9,
        type: 3}
      propertyPath: m_LocalRotation.z
      value: 0
      objectReference: {fileID: 0}
    - target: {fileID: -8679921383154817045, guid: 46ce6dadd6258b143a9714c2bab62af9,
        type: 3}
      propertyPath: m_LocalRotation.w
      value: 0
      objectReference: {fileID: 0}
    - target: {fileID: -8679921383154817045, guid: 46ce6dadd6258b143a9714c2bab62af9,
        type: 3}
      propertyPath: m_RootOrder
      value: 0
      objectReference: {fileID: 0}
    - target: {fileID: -8679921383154817045, guid: 46ce6dadd6258b143a9714c2bab62af9,
        type: 3}
      propertyPath: m_LocalEulerAnglesHint.x
      value: 0
      objectReference: {fileID: 0}
    - target: {fileID: -8679921383154817045, guid: 46ce6dadd6258b143a9714c2bab62af9,
        type: 3}
      propertyPath: m_LocalEulerAnglesHint.y
      value: 180
      objectReference: {fileID: 0}
    - target: {fileID: -8679921383154817045, guid: 46ce6dadd6258b143a9714c2bab62af9,
        type: 3}
      propertyPath: m_LocalEulerAnglesHint.z
      value: 0
      objectReference: {fileID: 0}
    - target: {fileID: -8679921383154817045, guid: 46ce6dadd6258b143a9714c2bab62af9,
        type: 3}
      propertyPath: m_LocalScale.x
      value: 16
      objectReference: {fileID: 0}
    - target: {fileID: -8679921383154817045, guid: 46ce6dadd6258b143a9714c2bab62af9,
        type: 3}
      propertyPath: m_LocalScale.z
      value: 16
      objectReference: {fileID: 0}
    - target: {fileID: -8679921383154817045, guid: 46ce6dadd6258b143a9714c2bab62af9,
        type: 3}
      propertyPath: m_LocalScale.y
      value: 5
      objectReference: {fileID: 0}
    - target: {fileID: 919132149155446097, guid: 46ce6dadd6258b143a9714c2bab62af9,
        type: 3}
      propertyPath: m_Name
      value: tile_end
      objectReference: {fileID: 0}
    m_RemovedComponents: []
  m_SourcePrefab: {fileID: 100100000, guid: 46ce6dadd6258b143a9714c2bab62af9, type: 3}
--- !u!4 &4865262870880233702 stripped
Transform:
  m_CorrespondingSourceObject: {fileID: -8679921383154817045, guid: 46ce6dadd6258b143a9714c2bab62af9,
    type: 3}
  m_PrefabInstance: {fileID: 4903957858863533837}
  m_PrefabAsset: {fileID: 0}
